Booking.com European landscape analysis
…
#Remove empty columns and rows
hotel1<-remove_empty(hotels_date_correct, which = c("rows","cols"))%>%
  filter(!is.na(lat))
#Check for duplicates (visualize bots)
duplicates<-hotel1%>%get_dupes(positive_review, negative_review, hotel_name, reviewer_nationality)
duplicates

## # A tibble: 2,664 x 19
##    positive_review negative_review hotel_name reviewer_nation… dupe_count
##    <chr>           <chr>           <chr>      <chr>                 <int>
##  1 1 The room is … 1 bad air cond… Hotel Mon… China                     2
##  2 1 The room is … 1 bad air cond… Hotel Mon… China                     2
##  3 A brilliant ho… The fridge in … H tel Con… United Kingdom            2
##  4 A brilliant ho… The fridge in … H tel Con… United Kingdom            2
##  5 A pleasant if … As always in P… H tel Con… United Kingdom            2
##  6 A pleasant if … As always in P… H tel Con… United Kingdom            2
##  7 A pleasent sta… No Negative     H tel Bau… Barbados                  2
##  8 A pleasent sta… No Negative     H tel Bau… Barbados                  2
##  9 Absolutely lov… No Negative     H tel Bau… United Kingdom            2
## 10 Absolutely lov… No Negative     H tel Bau… United Kingdom            2
## # … with 2,654 more rows, and 14 more variables: hotel_address <chr>,
## #   additional_number_of_scoring <dbl>, review_date <date>,
## #   average_score <dbl>, review_total_negative_word_counts <dbl>,
## #   total_number_of_reviews <dbl>, review_total_positive_word_counts <dbl>,
## #   total_number_of_reviews_reviewer_has_given <dbl>, reviewer_score <dbl>,
## #   tags <chr>, days_since_review <chr>, lat <dbl>, lng <dbl>, country <chr>
…
