Building Recommendation Systems for BBC iPlayer users
…
## [1] 9719

length(unique(movie_data$movieId))

## [1] 9737

setdiff(unique(movie_data$movieId), unique(rating_data$movieId)) 

##  [1]  1076  2939  3338  3456  4194  5721  6668  6849  7020  7792  8765 25855
## [13] 26085 30892 32160 32371 34482 85565

rating_data

## # A tibble: 100,832 x 3
##    userId movieId rating
##     <int>   <int>  <dbl>
##  1      1       1      4
##  2      1       3      4
##  3      1       6      4
##  4      1      47      5
##  5      1      50      5
##  6      1      70      3
##  7      1     101      5
##  8      1     110      4
##  9      1     151      5
## 10      1     157      5
## # … with 100,822 more rows
…
(rating_data)

## # A tibble: 100,832 x 3
##    userId movieId rating
##     <int>   <int>  <dbl>
##  1      1       1      4
##  2      1       3      4
##  3      1       6      4
##  4      1      47      5
##  5      1      50      5
##  6      1      70      3
##  7      1     101      5
##  8      1     110      4
##  9      1     151      5
## 10      1     157      5
## # … with 100,822 more rows
…
